%YAML 1.1
%TAG !u! tag:unity3d.com,2011:
--- !u!29 &1
OcclusionCullingSettings:
  m_ObjectHideFlags: 0
  serializedVersion: 2
  m_OcclusionBakeSettings:
    smallestOccluder: 5
    smallestHole: 0.25
    backfaceThreshold: 100
  m_SceneGUID: 00000000000000000000000000000000
  m_OcclusionCullingData: {fileID: 0}
--- !u!104 &2
RenderSettings:
  m_ObjectHideFlags: 0
  serializedVersion: 9
  m_Fog: 0
  m_FogColor: {r: 0.5, g: 0.5, b: 0.5, a: 1}
  m_FogMode: 3
  m_FogDensity: 0.01
  m_LinearFogStart: 0
  m_LinearFogEnd: 300
  m_AmbientSkyColor: {r: 0.212, g: 0.227, b: 0.259, a: 1}
  m_AmbientEquatorColor: {r: 0.114, g: 0.125, b: 0.133, a: 1}
  m_AmbientGroundColor: {r: 0.047, g: 0.043, b: 0.035, a: 1}
  m_AmbientIntensity: 1
  m_AmbientMode: 0
  m_SubtractiveShadowColor: {r: 0.42, g: 0.478, b: 0.627, a: 1}
  m_SkyboxMaterial: {fileID: 10304, guid: 0000000000000000f000000000000000, type: 0}
  m_HaloStrength: 0.5
  m_FlareStrength: 1
  m_FlareFadeSpeed: 3
  m_HaloTexture: {fileID: 0}
  m_SpotCookie: {fileID: 10001, guid: 0000000000000000e000000000000000, type: 0}
  m_DefaultReflectionMode: 0
  m_DefaultReflectionResolution: 128
  m_ReflectionBounces: 1
  m_ReflectionIntensity: 1
  m_CustomReflection: {fileID: 0}
  m_Sun: {fileID: 0}
  m_IndirectSpecularColor: {r: 0, g: 0, b: 0, a: 1}
  m_UseRadianceAmbientProbe: 0
--- !u!157 &3
LightmapSettings:
  m_ObjectHideFlags: 0
  serializedVersion: 11
  m_GIWorkflowMode: 1
  m_GISettings:
    serializedVersion: 2
    m_BounceScale: 1
    m_IndirectOutputScale: 1
    m_AlbedoBoost: 1
    m_EnvironmentLightingMode: 0
    m_EnableBakedLightmaps: 1
    m_EnableRealtimeLightmaps: 0
  m_LightmapEditorSettings:
    serializedVersion: 12
    m_Resolution: 2
    m_BakeResolution: 40
    m_AtlasSize: 1024
    m_AO: 0
    m_AOMaxDistance: 1
    m_CompAOExponent: 1
    m_CompAOExponentDirect: 0
    m_ExtractAmbientOcclusion: 0
    m_Padding: 2
    m_LightmapParameters: {fileID: 0}
    m_LightmapsBakeMode: 1
    m_TextureCompression: 1
    m_FinalGather: 0
    m_FinalGatherFiltering: 1
    m_FinalGatherRayCount: 256
    m_ReflectionCompression: 2
    m_MixedBakeMode: 2
    m_BakeBackend: 1
    m_PVRSampling: 1
    m_PVRDirectSampleCount: 32
    m_PVRSampleCount: 512
    m_PVRBounces: 2
    m_PVREnvironmentSampleCount: 256
    m_PVREnvironmentReferencePointCount: 2048
    m_PVRFilteringMode: 1
    m_PVRDenoiserTypeDirect: 1
    m_PVRDenoiserTypeIndirect: 1
    m_PVRDenoiserTypeAO: 1
    m_PVRFilterTypeDirect: 0
    m_PVRFilterTypeIndirect: 0
    m_PVRFilterTypeAO: 0
    m_PVREnvironmentMIS: 1
    m_PVRCulling: 1
    m_PVRFilteringGaussRadiusDirect: 1
    m_PVRFilteringGaussRadiusIndirect: 5
    m_PVRFilteringGaussRadiusAO: 2
    m_PVRFilteringAtrousPositionSigmaDirect: 0.5
    m_PVRFilteringAtrousPositionSigmaIndirect: 2
    m_PVRFilteringAtrousPositionSigmaAO: 1
    m_ExportTrainingData: 0
    m_TrainingDataDestination: TrainingData
    m_LightProbeSampleCountMultiplier: 4
  m_LightingDataAsset: {fileID: 0}
  m_UseShadowmask: 0
--- !u!196 &4
NavMeshSettings:
  serializedVersion: 2
  m_ObjectHideFlags: 0
  m_BuildSettings:
    serializedVersion: 2
    agentTypeID: 0
    agentRadius: 0.5
    agentHeight: 2
    agentSlope: 45
    agentClimb: 0.4
    ledgeDropHeight: 0
    maxJumpAcrossDistance: 0
    minRegionArea: 2
    manualCellSize: 0
    cellSize: 0.16666667
    manualTileSize: 0
    tileSize: 256
    accuratePlacement: 0
    debug:
      m_Flags: 0
  m_NavMeshData: {fileID: 0}
--- !u!1001 &30617918
PrefabInstance:
  m_ObjectHideFlags: 0
  serializedVersion: 2
  m_Modification:
    m_TransformParent: {fileID: 0}
    m_Modifications:
    - target: {fileID: 3768557011073027982, guid: b5c6b0e7886ff7d48ac4c1e807a6860f,
        type: 3}
      propertyPath: m_Name
      value: PF_Block2 (5)
      objectReference: {fileID: 0}
    - target: {fileID: 6825346583201313343, guid: b5c6b0e7886ff7d48ac4c1e807a6860f,
        type: 3}
      propertyPath: m_LocalPosition.x
      value: -3
      objectReference: {fileID: 0}
    - target: {fileID: 6825346583201313343, guid: b5c6b0e7886ff7d48ac4c1e807a6860f,
        type: 3}
      propertyPath: m_LocalPosition.y
      value: 0
      objectReference: {fileID: 0}
    - target: {fileID: 6825346583201313343, guid: b5c6b0e7886ff7d48ac4c1e807a6860f,
        type: 3}
      propertyPath: m_LocalPosition.z
      value: 0
      objectReference: {fileID: 0}
    - target: {fileID: 6825346583201313343, guid: b5c6b0e7886ff7d48ac4c1e807a6860f,
        type: 3}
      propertyPath: m_LocalRotation.x
      value: 0
      objectReference: {fileID: 0}
    - target: {fileID: 6825346583201313343, guid: b5c6b0e7886ff7d48ac4c1e807a6860f,
        type: 3}
      propertyPath: m_LocalRotation.y
      value: 0
      objectReference: {fileID: 0}
    - target: {fileID: 6825346583201313343, guid: b5c6b0e7886ff7d48ac4c1e807a6860f,
        type: 3}
      propertyPath: m_LocalRotation.z
      value: 0
      objectReference: {fileID: 0}
    - target: {fileID: 6825346583201313343, guid: b5c6b0e7886ff7d48ac4c1e807a6860f,
        type: 3}
      propertyPath: m_LocalRotation.w
      value: 1
      objectReference: {fileID: 0}
    - target: {fileID: 6825346583201313343, guid: b5c6b0e7886ff7d48ac4c1e807a6860f,
        type: 3}
      propertyPath: m_RootOrder
      value: 12
      objectReference: {fileID: 0}
    - target: {fileID: 6825346583201313343, guid: b5c6b0e7886ff7d48ac4c1e807a6860f,
        type: 3}
      propertyPath: m_LocalEulerAnglesHint.x
      value: 0
      objectReference: {fileID: 0}
    - target: {fileID: 6825346583201313343, guid: b5c6b0e7886ff7d48ac4c1e807a6860f,
        type: 3}
      propertyPath: m_LocalEulerAnglesHint.y
      value: 0
      objectReference: {fileID: 0}
    - target: {fileID: 6825346583201313343, guid: b5c6b0e7886ff7d48ac4c1e807a6860f,
        type: 3}
      propertyPath: m_LocalEulerAnglesHint.z
      value: 0
      objectReference: {fileID: 0}
    - target: {fileID: 8938336959143845967, guid: b5c6b0e7886ff7d48ac4c1e807a6860f,
        type: 3}
      propertyPath: m_Constraints
      value: 124
      objectReference: {fileID: 0}
    m_RemovedComponents: []
  m_SourcePrefab: {fileID: 100100000, guid: b5c6b0e7886ff7d48ac4c1e807a6860f, type: 3}
--- !u!1001 &36738676
PrefabInstance:
  m_ObjectHideFlags: 0
  serializedVersion: 2
  m_Modification:
    m_TransformParent: {fileID: 0}
    m_Modifications:
    - target: {fileID: 3768557011073027982, guid: b5c6b0e7886ff7d48ac4c1e807a6860f,
        type: 3}
      propertyPath: m_Name
      value: PF_Block2 (6)
      objectReference: {fileID: 0}
    - target: {fileID: 6825346583201313343, guid: b5c6b0e7886ff7d48ac4c1e807a6860f,
        type: 3}
      propertyPath: m_LocalPosition.x
      value: -2
      objectReference: {fileID: 0}
    - target: {fileID: 6825346583201313343, guid: b5c6b0e7886ff7d48ac4c1e807a6860f,
        type: 3}
      propertyPath: m_LocalPosition.y
      value: 0
      objectReference: {fileID: 0}
    - target: {fileID: 6825346583201313343, guid: b5c6b0e7886ff7d48ac4c1e807a6860f,
        type: 3}
      propertyPath: m_LocalPosition.z
      value: -2
      objectReference: {fileID: 0}
    - target: {fileID: 6825346583201313343, guid: b5c6b0e7886ff7d48ac4c1e807a6860f,
        type: 3}
      propertyPath: m_LocalRotation.x
      value: 0
      objectReference: {fileID: 0}
    - target: {fileID: 6825346583201313343, guid: b5c6b0e7886ff7d48ac4c1e807a6860f,
        type: 3}
      propertyPath: m_LocalRotation.y
      value: 0
      objectReference: {fileID: 0}
    - target: {fileID: 6825346583201313343, guid: b5c6b0e7886ff7d48ac4c1e807a6860f,
        type: 3}
      propertyPath: m_LocalRotation.z
      value: 0
      objectReference: {fileID: 0}
    - target: {fileID: 6825346583201313343, guid: b5c6b0e7886ff7d48ac4c1e807a6860f,
        type: 3}
      propertyPath: m_LocalRotation.w
      value: 1
      objectReference: {fileID: 0}
    - target: {fileID: 6825346583201313343, guid: b5c6b0e7886ff7d48ac4c1e807a6860f,
        type: 3}
      propertyPath: m_RootOrder
      value: 13
      objectReference: {fileID: 0}
    - target: {fileID: 6825346583201313343, guid: b5c6b0e7886ff7d48ac4c1e807a6860f,
        type: 3}
      propertyPath: m_LocalEulerAnglesHint.x
      value: 0
      objectReference: {fileID: 0}
    - target: {fileID: 6825346583201313343, guid: b5c6b0e7886ff7d48ac4c1e807a6860f,
        type: 3}
      propertyPath: m_LocalEulerAnglesHint.y
      value: 0
      objectReference: {fileID: 0}
    - target: {fileID: 6825346583201313343, guid: b5c6b0e7886ff7d48ac4c1e807a6860f,
        type: 3}
      propertyPath: m_LocalEulerAnglesHint.z
      value: 0
      objectReference: {fileID: 0}
    - target: {fileID: 8938336959143845967, guid: b5c6b0e7886ff7d48ac4c1e807a6860f,
        type: 3}
      propertyPath: m_Constraints
      value: 124
      objectReference: {fileID: 0}
    m_RemovedComponents: []
  m_SourcePrefab: {fileID: 100100000, guid: b5c6b0e7886ff7d48ac4c1e807a6860f, type: 3}
--- !u!1001 &92143550
PrefabInstance:
  m_ObjectHideFlags: 0
  serializedVersion: 2
  m_Modification:
    m_TransformParent: {fileID: 0}
    m_Modifications:
    - target: {fileID: 3768557011073027982, guid: b5c6b0e7886ff7d48ac4c1e807a6860f,
        type: 3}
      propertyPath: m_Name
      value: PF_Block2 (4)
      objectReference: {fileID: 0}
    - target: {fileID: 6825346583201313343, guid: b5c6b0e7886ff7d48ac4c1e807a6860f,
        type: 3}
      propertyPath: m_LocalPosition.x
      value: -3
      objectReference: {fileID: 0}
    - target: {fileID: 6825346583201313343, guid: b5c6b0e7886ff7d48ac4c1e807a6860f,
        type: 3}
      propertyPath: m_LocalPosition.y
      value: 0
      objectReference: {fileID: 0}
    - target: {fileID: 6825346583201313343, guid: b5c6b0e7886ff7d48ac4c1e807a6860f,
        type: 3}
      propertyPath: m_LocalPosition.z
      value: 2
      objectReference: {fileID: 0}
    - target: {fileID: 6825346583201313343, guid: b5c6b0e7886ff7d48ac4c1e807a6860f,
        type: 3}
      propertyPath: m_LocalRotation.x
      value: 0
      objectReference: {fileID: 0}
    - target: {fileID: 6825346583201313343, guid: b5c6b0e7886ff7d48ac4c1e807a6860f,
        type: 3}
      propertyPath: m_LocalRotation.y
      value: 0
      objectReference: {fileID: 0}
    - target: {fileID: 6825346583201313343, guid: b5c6b0e7886ff7d48ac4c1e807a6860f,
        type: 3}
      propertyPath: m_LocalRotation.z
      value: 0
      objectReference: {fileID: 0}
    - target: {fileID: 6825346583201313343, guid: b5c6b0e7886ff7d48ac4c1e807a6860f,
        type: 3}
      propertyPath: m_LocalRotation.w
      value: 1
      objectReference: {fileID: 0}
    - target: {fileID: 6825346583201313343, guid: b5c6b0e7886ff7d48ac4c1e807a6860f,
        type: 3}
      propertyPath: m_RootOrder
      value: 11
      objectReference: {fileID: 0}
    - target: {fileID: 6825346583201313343, guid: b5c6b0e7886ff7d48ac4c1e807a6860f,
        type: 3}
      propertyPath: m_LocalEulerAnglesHint.x
      value: 0
      objectReference: {fileID: 0}
    - target: {fileID: 6825346583201313343, guid: b5c6b0e7886ff7d48ac4c1e807a6860f,
        type: 3}
      propertyPath: m_LocalEulerAnglesHint.y
      value: 0
      objectReference: {fileID: 0}
    - target: {fileID: 6825346583201313343, guid: b5c6b0e7886ff7d48ac4c1e807a6860f,
        type: 3}
      propertyPath: m_LocalEulerAnglesHint.z
      value: 0
      objectReference: {fileID: 0}
    - target: {fileID: 8938336959143845967, guid: b5c6b0e7886ff7d48ac4c1e807a6860f,
        type: 3}
      propertyPath: m_Constraints
      value: 124
      objectReference: {fileID: 0}
    m_RemovedComponents: []
  m_SourcePrefab: {fileID: 100100000, guid: b5c6b0e7886ff7d48ac4c1e807a6860f, type: 3}
--- !u!1001 &193499507
PrefabInstance:
  m_ObjectHideFlags: 0
  serializedVersion: 2
  m_Modification:
    m_TransformParent: {fileID: 0}
    m_Modifications:
    - target: {fileID: 1032397918404608031, guid: 193bb4fcd2812b244aa6449ace5f7129,
        type: 3}
      propertyPath: m_LocalPosition.x
      value: 0
      objectReference: {fileID: 0}
    - target: {fileID: 1032397918404608031, guid: 193bb4fcd2812b244aa6449ace5f7129,
        type: 3}
      propertyPath: m_LocalPosition.y
      value: 0
      objectReference: {fileID: 0}
    - target: {fileID: 1032397918404608031, guid: 193bb4fcd2812b244aa6449ace5f7129,
        type: 3}
      propertyPath: m_LocalPosition.z
      value: -2
      objectReference: {fileID: 0}
    - target: {fileID: 1032397918404608031, guid: 193bb4fcd2812b244aa6449ace5f7129,
        type: 3}
      propertyPath: m_LocalRotation.x
      value: 0
      objectReference: {fileID: 0}
    - target: {fileID: 1032397918404608031, guid: 193bb4fcd2812b244aa6449ace5f7129,
        type: 3}
      propertyPath: m_LocalRotation.y
      value: 0
      objectReference: {fileID: 0}
    - target: {fileID: 1032397918404608031, guid: 193bb4fcd2812b244aa6449ace5f7129,
        type: 3}
      propertyPath: m_LocalRotation.z
      value: 0
      objectReference: {fileID: 0}
    - target: {fileID: 1032397918404608031, guid: 193bb4fcd2812b244aa6449ace5f7129,
        type: 3}
      propertyPath: m_LocalRotation.w
      value: 1
      objectReference: {fileID: 0}
    - target: {fileID: 1032397918404608031, guid: 193bb4fcd2812b244aa6449ace5f7129,
        type: 3}
      propertyPath: m_RootOrder
      value: 15
      objectReference: {fileID: 0}
    - target: {fileID: 1032397918404608031, guid: 193bb4fcd2812b244aa6449ace5f7129,
        type: 3}
      propertyPath: m_LocalEulerAnglesHint.x
      value: 0
      objectReference: {fileID: 0}
    - target: {fileID: 1032397918404608031, guid: 193bb4fcd2812b244aa6449ace5f7129,
        type: 3}
      propertyPath: m_LocalEulerAnglesHint.y
      value: -90
      objectReference: {fileID: 0}
    - target: {fileID: 1032397918404608031, guid: 193bb4fcd2812b244aa6449ace5f7129,
        type: 3}
      propertyPath: m_LocalEulerAnglesHint.z
      value: 0
      objectReference: {fileID: 0}
    - target: {fileID: 3519069092207264170, guid: 193bb4fcd2812b244aa6449ace5f7129,
        type: 3}
      propertyPath: m_Name
      value: PF_Block3
      objectReference: {fileID: 0}
    - target: {fileID: 4811873779689924360, guid: 193bb4fcd2812b244aa6449ace5f7129,
        type: 3}
      propertyPath: m_Constraints
      value: 124
      objectReference: {fileID: 0}
    m_RemovedComponents: []
  m_SourcePrefab: {fileID: 100100000, guid: 193bb4fcd2812b244aa6449ace5f7129, type: 3}
--- !u!1001 &231787456
PrefabInstance:
  m_ObjectHideFlags: 0
  serializedVersion: 2
  m_Modification:
    m_TransformParent: {fileID: 0}
    m_Modifications:
    - target: {fileID: 1608034426643505989, guid: 771060ef75682fe46b89c3c69fd7a124,
        type: 3}
      propertyPath: m_LocalPosition.x
      value: 0
      objectReference: {fileID: 0}
    - target: {fileID: 1608034426643505989, guid: 771060ef75682fe46b89c3c69fd7a124,
        type: 3}
      propertyPath: m_LocalPosition.y
      value: 0
      objectReference: {fileID: 0}
    - target: {fileID: 1608034426643505989, guid: 771060ef75682fe46b89c3c69fd7a124,
        type: 3}
      propertyPath: m_LocalPosition.z
      value: 0
      objectReference: {fileID: 0}
    - target: {fileID: 1608034426643505989, guid: 771060ef75682fe46b89c3c69fd7a124,
        type: 3}
      propertyPath: m_LocalRotation.x
      value: 0
      objectReference: {fileID: 0}
    - target: {fileID: 1608034426643505989, guid: 771060ef75682fe46b89c3c69fd7a124,
        type: 3}
      propertyPath: m_LocalRotation.y
      value: 0
      objectReference: {fileID: 0}
    - target: {fileID: 1608034426643505989, guid: 771060ef75682fe46b89c3c69fd7a124,
        type: 3}
      propertyPath: m_LocalRotation.z
      value: 0
      objectReference: {fileID: 0}
    - target: {fileID: 1608034426643505989, guid: 771060ef75682fe46b89c3c69fd7a124,
        type: 3}
      propertyPath: m_LocalRotation.w
      value: 1
      objectReference: {fileID: 0}
    - target: {fileID: 1608034426643505989, guid: 771060ef75682fe46b89c3c69fd7a124,
        type: 3}
      propertyPath: m_RootOrder
      value: 2
      objectReference: {fileID: 0}
    - target: {fileID: 1608034426643505989, guid: 771060ef75682fe46b89c3c69fd7a124,
        type: 3}
      propertyPath: m_LocalEulerAnglesHint.x
      value: 0
      objectReference: {fileID: 0}
    - target: {fileID: 1608034426643505989, guid: 771060ef75682fe46b89c3c69fd7a124,
        type: 3}
      propertyPath: m_LocalEulerAnglesHint.y
      value: 0
      objectReference: {fileID: 0}
    - target: {fileID: 1608034426643505989, guid: 771060ef75682fe46b89c3c69fd7a124,
        type: 3}
      propertyPath: m_LocalEulerAnglesHint.z
      value: 0
      objectReference: {fileID: 0}
    - target: {fileID: 8464295712845927751, guid: 771060ef75682fe46b89c3c69fd7a124,
        type: 3}
      propertyPath: m_Name
      value: PF_Board
      objectReference: {fileID: 0}
    m_RemovedComponents: []
  m_SourcePrefab: {fileID: 100100000, guid: 771060ef75682fe46b89c3c69fd7a124, type: 3}
--- !u!1001 &547346367
PrefabInstance:
  m_ObjectHideFlags: 0
  serializedVersion: 2
  m_Modification:
    m_TransformParent: {fileID: 0}
    m_Modifications:
    - target: {fileID: 3802950845625963869, guid: 5d0c0b429e4c7694699e9b2b08c3bb8c,
        type: 3}
      propertyPath: m_Constraints
      value: 118
      objectReference: {fileID: 0}
    - target: {fileID: 6224899224616578175, guid: 5d0c0b429e4c7694699e9b2b08c3bb8c,
        type: 3}
      propertyPath: m_LocalPosition.x
      value: 3
      objectReference: {fileID: 0}
    - target: {fileID: 6224899224616578175, guid: 5d0c0b429e4c7694699e9b2b08c3bb8c,
        type: 3}
      propertyPath: m_LocalPosition.y
      value: 0
      objectReference: {fileID: 0}
    - target: {fileID: 6224899224616578175, guid: 5d0c0b429e4c7694699e9b2b08c3bb8c,
        type: 3}
      propertyPath: m_LocalPosition.z
      value: -2
      objectReference: {fileID: 0}
    - target: {fileID: 6224899224616578175, guid: 5d0c0b429e4c7694699e9b2b08c3bb8c,
        type: 3}
      propertyPath: m_LocalRotation.x
      value: 0
      objectReference: {fileID: 0}
    - target: {fileID: 6224899224616578175, guid: 5d0c0b429e4c7694699e9b2b08c3bb8c,
        type: 3}
      propertyPath: m_LocalRotation.y
      value: -0.7071068
      objectReference: {fileID: 0}
    - target: {fileID: 6224899224616578175, guid: 5d0c0b429e4c7694699e9b2b08c3bb8c,
        type: 3}
      propertyPath: m_LocalRotation.z
      value: 0
      objectReference: {fileID: 0}
    - target: {fileID: 6224899224616578175, guid: 5d0c0b429e4c7694699e9b2b08c3bb8c,
        type: 3}
      propertyPath: m_LocalRotation.w
      value: 0.7071068
      objectReference: {fileID: 0}
    - target: {fileID: 6224899224616578175, guid: 5d0c0b429e4c7694699e9b2b08c3bb8c,
        type: 3}
      propertyPath: m_RootOrder
      value: 17
      objectReference: {fileID: 0}
    - target: {fileID: 6224899224616578175, guid: 5d0c0b429e4c7694699e9b2b08c3bb8c,
        type: 3}
      propertyPath: m_LocalEulerAnglesHint.x
      value: 0
      objectReference: {fileID: 0}
    - target: {fileID: 6224899224616578175, guid: 5d0c0b429e4c7694699e9b2b08c3bb8c,
        type: 3}
      propertyPath: m_LocalEulerAnglesHint.y
      value: -90
      objectReference: {fileID: 0}
    - target: {fileID: 6224899224616578175, guid: 5d0c0b429e4c7694699e9b2b08c3bb8c,
        type: 3}
      propertyPath: m_LocalEulerAnglesHint.z
      value: 0
      objectReference: {fileID: 0}
    - target: {fileID: 9102340485792606567, guid: 5d0c0b429e4c7694699e9b2b08c3bb8c,
        type: 3}
      propertyPath: m_Name
      value: PF_Ice3 (1)
      objectReference: {fileID: 0}
    m_RemovedComponents: []
  m_SourcePrefab: {fileID: 100100000, guid: 5d0c0b429e4c7694699e9b2b08c3bb8c, type: 3}
--- !u!1001 &600836563
PrefabInstance:
  m_ObjectHideFlags: 0
  serializedVersion: 2
  m_Modification:
    m_TransformParent: {fileID: 0}
    m_Modifications:
    - target: {fileID: 3768557011073027982, guid: b5c6b0e7886ff7d48ac4c1e807a6860f,
        type: 3}
      propertyPath: m_Name
      value: PF_Block2 (3)
      objectReference: {fileID: 0}
    - target: {fileID: 6825346583201313343, guid: b5c6b0e7886ff7d48ac4c1e807a6860f,
        type: 3}
      propertyPath: m_LocalPosition.x
      value: -1
      objectReference: {fileID: 0}
    - target: {fileID: 6825346583201313343, guid: b5c6b0e7886ff7d48ac4c1e807a6860f,
        type: 3}
      propertyPath: m_LocalPosition.y
      value: 0
      objectReference: {fileID: 0}
    - target: {fileID: 6825346583201313343, guid: b5c6b0e7886ff7d48ac4c1e807a6860f,
        type: 3}
      propertyPath: m_LocalPosition.z
      value: 1
      objectReference: {fileID: 0}
    - target: {fileID: 6825346583201313343, guid: b5c6b0e7886ff7d48ac4c1e807a6860f,
        type: 3}
      propertyPath: m_LocalRotation.x
      value: 0
      objectReference: {fileID: 0}
    - target: {fileID: 6825346583201313343, guid: b5c6b0e7886ff7d48ac4c1e807a6860f,
        type: 3}
      propertyPath: m_LocalRotation.y
      value: 0
      objectReference: {fileID: 0}
    - target: {fileID: 6825346583201313343, guid: b5c6b0e7886ff7d48ac4c1e807a6860f,
        type: 3}
      propertyPath: m_LocalRotation.z
      value: 0
      objectReference: {fileID: 0}
    - target: {fileID: 6825346583201313343, guid: b5c6b0e7886ff7d48ac4c1e807a6860f,
        type: 3}
      propertyPath: m_LocalRotation.w
      value: 1
      objectReference: {fileID: 0}
    - target: {fileID: 6825346583201313343, guid: b5c6b0e7886ff7d48ac4c1e807a6860f,
        type: 3}
      propertyPath: m_RootOrder
      value: 10
      objectReference: {fileID: 0}
    - target: {fileID: 6825346583201313343, guid: b5c6b0e7886ff7d48ac4c1e807a6860f,
        type: 3}
      propertyPath: m_LocalEulerAnglesHint.x
      value: 0
      objectReference: {fileID: 0}
    - target: {fileID: 6825346583201313343, guid: b5c6b0e7886ff7d48ac4c1e807a6860f,
        type: 3}
      propertyPath: m_LocalEulerAnglesHint.y
      value: 0
      objectReference: {fileID: 0}
    - target: {fileID: 6825346583201313343, guid: b5c6b0e7886ff7d48ac4c1e807a6860f,
        type: 3}
      propertyPath: m_LocalEulerAnglesHint.z
      value: 0
      objectReference: {fileID: 0}
    - target: {fileID: 8938336959143845967, guid: b5c6b0e7886ff7d48ac4c1e807a6860f,
        type: 3}
      propertyPath: m_Constraints
      value: 124
      objectReference: {fileID: 0}
    m_RemovedComponents: []
  m_SourcePrefab: {fileID: 100100000, guid: b5c6b0e7886ff7d48ac4c1e807a6860f, type: 3}
--- !u!1001 &794982085
PrefabInstance:
  m_ObjectHideFlags: 0
  serializedVersion: 2
  m_Modification:
    m_TransformParent: {fileID: 0}
    m_Modifications:
    - target: {fileID: 3802950845625963869, guid: 5d0c0b429e4c7694699e9b2b08c3bb8c,
        type: 3}
      propertyPath: m_Constraints
      value: 118
      objectReference: {fileID: 0}
    - target: {fileID: 6224899224616578175, guid: 5d0c0b429e4c7694699e9b2b08c3bb8c,
        type: 3}
      propertyPath: m_LocalPosition.x
      value: -2
      objectReference: {fileID: 0}
    - target: {fileID: 6224899224616578175, guid: 5d0c0b429e4c7694699e9b2b08c3bb8c,
        type: 3}
      propertyPath: m_LocalPosition.y
      value: 0
      objectReference: {fileID: 0}
    - target: {fileID: 6224899224616578175, guid: 5d0c0b429e4c7694699e9b2b08c3bb8c,
        type: 3}
      propertyPath: m_LocalPosition.z
      value: -3
      objectReference: {fileID: 0}
    - target: {fileID: 6224899224616578175, guid: 5d0c0b429e4c7694699e9b2b08c3bb8c,
        type: 3}
      propertyPath: m_LocalRotation.x
      value: 0
      objectReference: {fileID: 0}
    - target: {fileID: 6224899224616578175, guid: 5d0c0b429e4c7694699e9b2b08c3bb8c,
        type: 3}
      propertyPath: m_LocalRotation.y
      value: -0.7071068
      objectReference: {fileID: 0}
    - target: {fileID: 6224899224616578175, guid: 5d0c0b429e4c7694699e9b2b08c3bb8c,
        type: 3}
      propertyPath: m_LocalRotation.z
      value: 0
      objectReference: {fileID: 0}
    - target: {fileID: 6224899224616578175, guid: 5d0c0b429e4c7694699e9b2b08c3bb8c,
        type: 3}
      propertyPath: m_LocalRotation.w
      value: 0.7071068
      objectReference: {fileID: 0}
    - target: {fileID: 6224899224616578175, guid: 5d0c0b429e4c7694699e9b2b08c3bb8c,
        type: 3}
      propertyPath: m_RootOrder
      value: 16
      objectReference: {fileID: 0}
    - target: {fileID: 6224899224616578175, guid: 5d0c0b429e4c7694699e9b2b08c3bb8c,
        type: 3}
      propertyPath: m_LocalEulerAnglesHint.x
      value: 0
      objectReference: {fileID: 0}
    - target: {fileID: 6224899224616578175, guid: 5d0c0b429e4c7694699e9b2b08c3bb8c,
        type: 3}
      propertyPath: m_LocalEulerAnglesHint.y
      value: -90
      objectReference: {fileID: 0}
    - target: {fileID: 6224899224616578175, guid: 5d0c0b429e4c7694699e9b2b08c3bb8c,
        type: 3}
      propertyPath: m_LocalEulerAnglesHint.z
      value: 0
      objectReference: {fileID: 0}
    - target: {fileID: 9102340485792606567, guid: 5d0c0b429e4c7694699e9b2b08c3bb8c,
        type: 3}
      propertyPath: m_Name
      value: PF_Ice3
      objectReference: {fileID: 0}
    m_RemovedComponents: []
  m_SourcePrefab: {fileID: 100100000, guid: 5d0c0b429e4c7694699e9b2b08c3bb8c, type: 3}
--- !u!1001 &1043497305
PrefabInstance:
  m_ObjectHideFlags: 0
  serializedVersion: 2
  m_Modification:
    m_TransformParent: {fileID: 0}
    m_Modifications:
    - target: {fileID: 163976491104604392, guid: f4b7d58408845eb489e40508082f1673,
        type: 3}
      propertyPath: m_LocalPosition.x
      value: 0
      objectReference: {fileID: 0}
    - target: {fileID: 163976491104604392, guid: f4b7d58408845eb489e40508082f1673,
        type: 3}
      propertyPath: m_LocalPosition.y
      value: 0
      objectReference: {fileID: 0}
    - target: {fileID: 163976491104604392, guid: f4b7d58408845eb489e40508082f1673,
        type: 3}
      propertyPath: m_LocalPosition.z
      value: 0
      objectReference: {fileID: 0}
    - target: {fileID: 163976491104604392, guid: f4b7d58408845eb489e40508082f1673,
        type: 3}
      propertyPath: m_LocalRotation.x
      value: 0
      objectReference: {fileID: 0}
    - target: {fileID: 163976491104604392, guid: f4b7d58408845eb489e40508082f1673,
        type: 3}
      propertyPath: m_LocalRotation.y
      value: 0
      objectReference: {fileID: 0}
    - target: {fileID: 163976491104604392, guid: f4b7d58408845eb489e40508082f1673,
        type: 3}
      propertyPath: m_LocalRotation.z
      value: 0
      objectReference: {fileID: 0}
    - target: {fileID: 163976491104604392, guid: f4b7d58408845eb489e40508082f1673,
        type: 3}
      propertyPath: m_LocalRotation.w
      value: 1
      objectReference: {fileID: 0}
    - target: {fileID: 163976491104604392, guid: f4b7d58408845eb489e40508082f1673,
        type: 3}
      propertyPath: m_RootOrder
      value: 6
      objectReference: {fileID: 0}
    - target: {fileID: 163976491104604392, guid: f4b7d58408845eb489e40508082f1673,
        type: 3}
      propertyPath: m_LocalEulerAnglesHint.x
      value: 0
      objectReference: {fileID: 0}
    - target: {fileID: 163976491104604392, guid: f4b7d58408845eb489e40508082f1673,
        type: 3}
      propertyPath: m_LocalEulerAnglesHint.y
      value: 0
      objectReference: {fileID: 0}
    - target: {fileID: 163976491104604392, guid: f4b7d58408845eb489e40508082f1673,
        type: 3}
      propertyPath: m_LocalEulerAnglesHint.z
      value: 0
      objectReference: {fileID: 0}
    - target: {fileID: 6295715247833929176, guid: f4b7d58408845eb489e40508082f1673,
        type: 3}
      propertyPath: m_Name
      value: PF_Character
      objectReference: {fileID: 0}
    - target: {fileID: 8978846172594570863, guid: f4b7d58408845eb489e40508082f1673,
        type: 3}
      propertyPath: m_Constraints
      value: 124
      objectReference: {fileID: 0}
    m_RemovedComponents: []
  m_SourcePrefab: {fileID: 100100000, guid: f4b7d58408845eb489e40508082f1673, type: 3}
--- !u!1001 &1117685842
PrefabInstance:
  m_ObjectHideFlags: 0
  serializedVersion: 2
  m_Modification:
    m_TransformParent: {fileID: 0}
    m_Modifications:
    - target: {fileID: 3768557011073027982, guid: b5c6b0e7886ff7d48ac4c1e807a6860f,
        type: 3}
      propertyPath: m_Name
      value: PF_Block2
      objectReference: {fileID: 0}
    - target: {fileID: 6825346583201313343, guid: b5c6b0e7886ff7d48ac4c1e807a6860f,
        type: 3}
      propertyPath: m_LocalPosition.x
      value: 2
      objectReference: {fileID: 0}
    - target: {fileID: 6825346583201313343, guid: b5c6b0e7886ff7d48ac4c1e807a6860f,
        type: 3}
      propertyPath: m_LocalPosition.y
      value: 0
      objectReference: {fileID: 0}
    - target: {fileID: 6825346583201313343, guid: b5c6b0e7886ff7d48ac4c1e807a6860f,
        type: 3}
      propertyPath: m_LocalPosition.z
      value: 1
      objectReference: {fileID: 0}
    - target: {fileID: 6825346583201313343, guid: b5c6b0e7886ff7d48ac4c1e807a6860f,
        type: 3}
      propertyPath: m_LocalRotation.x
      value: 0
      objectReference: {fileID: 0}
    - target: {fileID: 6825346583201313343, guid: b5c6b0e7886ff7d48ac4c1e807a6860f,
        type: 3}
      propertyPath: m_LocalRotation.y
      value: -0.7071068
      objectReference: {fileID: 0}
    - target: {fileID: 6825346583201313343, guid: b5c6b0e7886ff7d48ac4c1e807a6860f,
        type: 3}
      propertyPath: m_LocalRotation.z
      value: 0
      objectReference: {fileID: 0}
    - target: {fileID: 6825346583201313343, guid: b5c6b0e7886ff7d48ac4c1e807a6860f,
        type: 3}
      propertyPath: m_LocalRotation.w
      value: 0.7071068
      objectReference: {fileID: 0}
    - target: {fileID: 6825346583201313343, guid: b5c6b0e7886ff7d48ac4c1e807a6860f,
        type: 3}
      propertyPath: m_RootOrder
      value: 7
      objectReference: {fileID: 0}
    - target: {fileID: 6825346583201313343, guid: b5c6b0e7886ff7d48ac4c1e807a6860f,
        type: 3}
      propertyPath: m_LocalEulerAnglesHint.x
      value: 0
      objectReference: {fileID: 0}
    - target: {fileID: 6825346583201313343, guid: b5c6b0e7886ff7d48ac4c1e807a6860f,
        type: 3}
      propertyPath: m_LocalEulerAnglesHint.y
      value: -90
      objectReference: {fileID: 0}
    - target: {fileID: 6825346583201313343, guid: b5c6b0e7886ff7d48ac4c1e807a6860f,
        type: 3}
      propertyPath: m_LocalEulerAnglesHint.z
      value: 0
      objectReference: {fileID: 0}
    - target: {fileID: 7150010104915551622, guid: b5c6b0e7886ff7d48ac4c1e807a6860f,
        type: 3}
      propertyPath: direction
      value: 1
      objectReference: {fileID: 0}
    - target: {fileID: 8938336959143845967, guid: b5c6b0e7886ff7d48ac4c1e807a6860f,
        type: 3}
      propertyPath: m_Constraints
      value: 118
      objectReference: {fileID: 0}
    m_RemovedComponents: []
  m_SourcePrefab: {fileID: 100100000, guid: b5c6b0e7886ff7d48ac4c1e807a6860f, type: 3}
--- !u!1001 &1294495345
PrefabInstance:
  m_ObjectHideFlags: 0
  serializedVersion: 2
  m_Modification:
    m_TransformParent: {fileID: 0}
    m_Modifications:
    - target: {fileID: 3768557011073027982, guid: b5c6b0e7886ff7d48ac4c1e807a6860f,
        type: 3}
      propertyPath: m_Name
      value: PF_Block2 (2)
      objectReference: {fileID: 0}
    - target: {fileID: 6825346583201313343, guid: b5c6b0e7886ff7d48ac4c1e807a6860f,
        type: 3}
      propertyPath: m_LocalPosition.x
      value: 1
      objectReference: {fileID: 0}
    - target: {fileID: 6825346583201313343, guid: b5c6b0e7886ff7d48ac4c1e807a6860f,
        type: 3}
      propertyPath: m_LocalPosition.y
      value: 0
      objectReference: {fileID: 0}
    - target: {fileID: 6825346583201313343, guid: b5c6b0e7886ff7d48ac4c1e807a6860f,
        type: 3}
      propertyPath: m_LocalPosition.z
      value: -2
      objectReference: {fileID: 0}
    - target: {fileID: 6825346583201313343, guid: b5c6b0e7886ff7d48ac4c1e807a6860f,
        type: 3}
      propertyPath: m_LocalRotation.x
      value: 0
      objectReference: {fileID: 0}
    - target: {fileID: 6825346583201313343, guid: b5c6b0e7886ff7d48ac4c1e807a6860f,
        type: 3}
      propertyPath: m_LocalRotation.y
      value: -0.7071068
      objectReference: {fileID: 0}
    - target: {fileID: 6825346583201313343, guid: b5c6b0e7886ff7d48ac4c1e807a6860f,
        type: 3}
      propertyPath: m_LocalRotation.z
      value: 0
      objectReference: {fileID: 0}
    - target: {fileID: 6825346583201313343, guid: b5c6b0e7886ff7d48ac4c1e807a6860f,
        type: 3}
      propertyPath: m_LocalRotation.w
      value: 0.7071068
      objectReference: {fileID: 0}
    - target: {fileID: 6825346583201313343, guid: b5c6b0e7886ff7d48ac4c1e807a6860f,
        type: 3}
      propertyPath: m_RootOrder
      value: 9
      objectReference: {fileID: 0}
    - target: {fileID: 6825346583201313343, guid: b5c6b0e7886ff7d48ac4c1e807a6860f,
        type: 3}
      propertyPath: m_LocalEulerAnglesHint.x
      value: 0
      objectReference: {fileID: 0}
    - target: {fileID: 6825346583201313343, guid: b5c6b0e7886ff7d48ac4c1e807a6860f,
        type: 3}
      propertyPath: m_LocalEulerAnglesHint.y
      value: -90
      objectReference: {fileID: 0}
    - target: {fileID: 6825346583201313343, guid: b5c6b0e7886ff7d48ac4c1e807a6860f,
        type: 3}
      propertyPath: m_LocalEulerAnglesHint.z
      value: 0
      objectReference: {fileID: 0}
    - target: {fileID: 7150010104915551622, guid: b5c6b0e7886ff7d48ac4c1e807a6860f,
        type: 3}
      propertyPath: direction
      value: 1
      objectReference: {fileID: 0}
    - target: {fileID: 8938336959143845967, guid: b5c6b0e7886ff7d48ac4c1e807a6860f,
        type: 3}
      propertyPath: m_Constraints
      value: 118
      objectReference: {fileID: 0}
    m_RemovedComponents: []
  m_SourcePrefab: {fileID: 100100000, guid: b5c6b0e7886ff7d48ac4c1e807a6860f, type: 3}
--- !u!1001 &1421474187
PrefabInstance:
  m_ObjectHideFlags: 0
  serializedVersion: 2
  m_Modification:
    m_TransformParent: {fileID: 0}
    m_Modifications:
    - target: {fileID: 989098746219067459, guid: 6a9e88e2546770e42b0bc7e67ea79649,
        type: 3}
      propertyPath: m_Name
      value: BoundaryWalls
      objectReference: {fileID: 0}
    - target: {fileID: 989098746219067836, guid: 6a9e88e2546770e42b0bc7e67ea79649,
        type: 3}
      propertyPath: m_LocalPosition.x
      value: 0
      objectReference: {fileID: 0}
    - target: {fileID: 989098746219067836, guid: 6a9e88e2546770e42b0bc7e67ea79649,
        type: 3}
      propertyPath: m_LocalPosition.y
      value: 0
      objectReference: {fileID: 0}
    - target: {fileID: 989098746219067836, guid: 6a9e88e2546770e42b0bc7e67ea79649,
        type: 3}
      propertyPath: m_LocalPosition.z
      value: 0
      objectReference: {fileID: 0}
    - target: {fileID: 989098746219067836, guid: 6a9e88e2546770e42b0bc7e67ea79649,
        type: 3}
      propertyPath: m_LocalRotation.x
      value: 0
      objectReference: {fileID: 0}
    - target: {fileID: 989098746219067836, guid: 6a9e88e2546770e42b0bc7e67ea79649,
        type: 3}
      propertyPath: m_LocalRotation.y
      value: 0
      objectReference: {fileID: 0}
    - target: {fileID: 989098746219067836, guid: 6a9e88e2546770e42b0bc7e67ea79649,
        type: 3}
      propertyPath: m_LocalRotation.z
      value: 0
      objectReference: {fileID: 0}
    - target: {fileID: 989098746219067836, guid: 6a9e88e2546770e42b0bc7e67ea79649,
        type: 3}
      propertyPath: m_LocalRotation.w
      value: 1
      objectReference: {fileID: 0}
    - target: {fileID: 989098746219067836, guid: 6a9e88e2546770e42b0bc7e67ea79649,
        type: 3}
      propertyPath: m_RootOrder
      value: 3
      objectReference: {fileID: 0}
    - target: {fileID: 989098746219067836, guid: 6a9e88e2546770e42b0bc7e67ea79649,
        type: 3}
      propertyPath: m_LocalEulerAnglesHint.x
      value: 0
      objectReference: {fileID: 0}
    - target: {fileID: 989098746219067836, guid: 6a9e88e2546770e42b0bc7e67ea79649,
        type: 3}
      propertyPath: m_LocalEulerAnglesHint.y
      value: 0
      objectReference: {fileID: 0}
    - target: {fileID: 989098746219067836, guid: 6a9e88e2546770e42b0bc7e67ea79649,
        type: 3}
      propertyPath: m_LocalEulerAnglesHint.z
      value: 0
      objectReference: {fileID: 0}
    m_RemovedComponents: []
  m_SourcePrefab: {fileID: 100100000, guid: 6a9e88e2546770e42b0bc7e67ea79649, type: 3}
--- !u!1001 &1507332857
PrefabInstance:
  m_ObjectHideFlags: 0
  serializedVersion: 2
  m_Modification:
    m_TransformParent: {fileID: 0}
    m_Modifications:
    - target: {fileID: 3768557011073027982, guid: b5c6b0e7886ff7d48ac4c1e807a6860f,
        type: 3}
      propertyPath: m_Name
      value: PF_Block2 (7)
      objectReference: {fileID: 0}
    - target: {fileID: 6825346583201313343, guid: b5c6b0e7886ff7d48ac4c1e807a6860f,
        type: 3}
      propertyPath: m_LocalPosition.x
      value: -2
      objectReference: {fileID: 0}
    - target: {fileID: 6825346583201313343, guid: b5c6b0e7886ff7d48ac4c1e807a6860f,
        type: 3}
      propertyPath: m_LocalPosition.y
      value: 0
      objectReference: {fileID: 0}
    - target: {fileID: 6825346583201313343, guid: b5c6b0e7886ff7d48ac4c1e807a6860f,
        type: 3}
      propertyPath: m_LocalPosition.z
      value: -3
      objectReference: {fileID: 0}
    - target: {fileID: 6825346583201313343, guid: b5c6b0e7886ff7d48ac4c1e807a6860f,
        type: 3}
      propertyPath: m_LocalRotation.x
      value: 0
      objectReference: {fileID: 0}
    - target: {fileID: 6825346583201313343, guid: b5c6b0e7886ff7d48ac4c1e807a6860f,
        type: 3}
      propertyPath: m_LocalRotation.y
      value: 0
      objectReference: {fileID: 0}
    - target: {fileID: 6825346583201313343, guid: b5c6b0e7886ff7d48ac4c1e807a6860f,
        type: 3}
      propertyPath: m_LocalRotation.z
      value: 0
      objectReference: {fileID: 0}
    - target: {fileID: 6825346583201313343, guid: b5c6b0e7886ff7d48ac4c1e807a6860f,
        type: 3}
      propertyPath: m_LocalRotation.w
      value: 1
      objectReference: {fileID: 0}
    - target: {fileID: 6825346583201313343, guid: b5c6b0e7886ff7d48ac4c1e807a6860f,
        type: 3}
      propertyPath: m_RootOrder
      value: 14
      objectReference: {fileID: 0}
    - target: {fileID: 6825346583201313343, guid: b5c6b0e7886ff7d48ac4c1e807a6860f,
        type: 3}
      propertyPath: m_LocalEulerAnglesHint.x
      value: 0
      objectReference: {fileID: 0}
    - target: {fileID: 6825346583201313343, guid: b5c6b0e7886ff7d48ac4c1e807a6860f,
        type: 3}
      propertyPath: m_LocalEulerAnglesHint.y
      value: 0
      objectReference: {fileID: 0}
    - target: {fileID: 6825346583201313343, guid: b5c6b0e7886ff7d48ac4c1e807a6860f,
        type: 3}
      propertyPath: m_LocalEulerAnglesHint.z
      value: 0
      objectReference: {fileID: 0}
    - target: {fileID: 8938336959143845967, guid: b5c6b0e7886ff7d48ac4c1e807a6860f,
        type: 3}
      propertyPath: m_Constraints
      value: 124
      objectReference: {fileID: 0}
    m_RemovedComponents: []
  m_SourcePrefab: {fileID: 100100000, guid: b5c6b0e7886ff7d48ac4c1e807a6860f, type: 3}
--- !u!1001 &1599305515
PrefabInstance:
  m_ObjectHideFlags: 0
  serializedVersion: 2
  m_Modification:
    m_TransformParent: {fileID: 0}
    m_Modifications:
    - target: {fileID: 87147223749183796, guid: dac706e7cd47def4b8390e0aa0124fa7,
        type: 3}
      propertyPath: m_Name
      value: VictoryPoint
      objectReference: {fileID: 0}
    - target: {fileID: 87147223749183801, guid: dac706e7cd47def4b8390e0aa0124fa7,
        type: 3}
      propertyPath: maxMove3Star
      value: 15
      objectReference: {fileID: 0}
    - target: {fileID: 87147223749183801, guid: dac706e7cd47def4b8390e0aa0124fa7,
        type: 3}
      propertyPath: maxMove2Star
      value: 17
      objectReference: {fileID: 0}
    - target: {fileID: 87147223749183803, guid: dac706e7cd47def4b8390e0aa0124fa7,
        type: 3}
      propertyPath: m_LocalPosition.x
      value: 3.56
      objectReference: {fileID: 0}
    - target: {fileID: 87147223749183803, guid: dac706e7cd47def4b8390e0aa0124fa7,
        type: 3}
      propertyPath: m_LocalPosition.y
      value: 1.5
      objectReference: {fileID: 0}
    - target: {fileID: 87147223749183803, guid: dac706e7cd47def4b8390e0aa0124fa7,
        type: 3}
      propertyPath: m_LocalPosition.z
      value: 0.5
      objectReference: {fileID: 0}
    - target: {fileID: 87147223749183803, guid: dac706e7cd47def4b8390e0aa0124fa7,
        type: 3}
      propertyPath: m_LocalRotation.x
      value: 0
      objectReference: {fileID: 0}
    - target: {fileID: 87147223749183803, guid: dac706e7cd47def4b8390e0aa0124fa7,
        type: 3}
      propertyPath: m_LocalRotation.y
      value: 0
      objectReference: {fileID: 0}
    - target: {fileID: 87147223749183803, guid: dac706e7cd47def4b8390e0aa0124fa7,
        type: 3}
      propertyPath: m_LocalRotation.z
      value: 0
      objectReference: {fileID: 0}
    - target: {fileID: 87147223749183803, guid: dac706e7cd47def4b8390e0aa0124fa7,
        type: 3}
      propertyPath: m_LocalRotation.w
      value: 1
      objectReference: {fileID: 0}
    - target: {fileID: 87147223749183803, guid: dac706e7cd47def4b8390e0aa0124fa7,
        type: 3}
      propertyPath: m_RootOrder
      value: 4
      objectReference: {fileID: 0}
    - target: {fileID: 87147223749183803, guid: dac706e7cd47def4b8390e0aa0124fa7,
        type: 3}
      propertyPath: m_LocalEulerAnglesHint.x
      value: 0
      objectReference: {fileID: 0}
    - target: {fileID: 87147223749183803, guid: dac706e7cd47def4b8390e0aa0124fa7,
        type: 3}
      propertyPath: m_LocalEulerAnglesHint.y
      value: 0
      objectReference: {fileID: 0}
    - target: {fileID: 87147223749183803, guid: dac706e7cd47def4b8390e0aa0124fa7,
        type: 3}
      propertyPath: m_LocalEulerAnglesHint.z
      value: 0
      objectReference: {fileID: 0}
    m_RemovedComponents: []
  m_SourcePrefab: {fileID: 100100000, guid: dac706e7cd47def4b8390e0aa0124fa7, type: 3}
--- !u!1001 &1656572056
PrefabInstance:
  m_ObjectHideFlags: 0
  serializedVersion: 2
  m_Modification:
    m_TransformParent: {fileID: 0}
    m_Modifications:
    - target: {fileID: 7762281688864416770, guid: 466e5ae296af51643a5c516b89875284,
        type: 3}
      propertyPath: m_Name
      value: CameraTarget
      objectReference: {fileID: 0}
    - target: {fileID: 7762281688864416781, guid: 466e5ae296af51643a5c516b89875284,
        type: 3}
      propertyPath: m_LocalPosition.x
      value: 0
      objectReference: {fileID: 0}
    - target: {fileID: 7762281688864416781, guid: 466e5ae296af51643a5c516b89875284,
        type: 3}
      propertyPath: m_LocalPosition.y
      value: 0
      objectReference: {fileID: 0}
    - target: {fileID: 7762281688864416781, guid: 466e5ae296af51643a5c516b89875284,
        type: 3}
      propertyPath: m_LocalPosition.z
      value: 0
      objectReference: {fileID: 0}
    - target: {fileID: 7762281688864416781, guid: 466e5ae296af51643a5c516b89875284,
        type: 3}
      propertyPath: m_LocalRotation.x
      value: 0.5735764
      objectReference: {fileID: 0}
    - target: {fileID: 7762281688864416781, guid: 466e5ae296af51643a5c516b89875284,
        type: 3}
      propertyPath: m_LocalRotation.y
      value: 0
      objectReference: {fileID: 0}
    - target: {fileID: 7762281688864416781, guid: 466e5ae296af51643a5c516b89875284,
        type: 3}
      propertyPath: m_LocalRotation.z
      value: 0
      objectReference: {fileID: 0}
    - target: {fileID: 7762281688864416781, guid: 466e5ae296af51643a5c516b89875284,
        type: 3}
      propertyPath: m_LocalRotation.w
      value: 0.8191521
      objectReference: {fileID: 0}
    - target: {fileID: 7762281688864416781, guid: 466e5ae296af51643a5c516b89875284,
        type: 3}
      propertyPath: m_RootOrder
      value: 1
      objectReference: {fileID: 0}
    - target: {fileID: 7762281688864416781, guid: 466e5ae296af51643a5c516b89875284,
        type: 3}
      propertyPath: m_LocalEulerAnglesHint.x
      value: 70
      objectReference: {fileID: 0}
    - target: {fileID: 7762281688864416781, guid: 466e5ae296af51643a5c516b89875284,
        type: 3}
      propertyPath: m_LocalEulerAnglesHint.y
      value: 0
      objectReference: {fileID: 0}
    - target: {fileID: 7762281688864416781, guid: 466e5ae296af51643a5c516b89875284,
        type: 3}
      propertyPath: m_LocalEulerAnglesHint.z
      value: 0
      objectReference: {fileID: 0}
    m_RemovedComponents: []
  m_SourcePrefab: {fileID: 100100000, guid: 466e5ae296af51643a5c516b89875284, type: 3}
--- !u!1 &1713743475
GameObject:
  m_ObjectHideFlags: 0
  m_CorrespondingSourceObject: {fileID: 0}
  m_PrefabInstance: {fileID: 0}
  m_PrefabAsset: {fileID: 0}
  serializedVersion: 6
  m_Component:
  - component: {fileID: 1713743477}
  - component: {fileID: 1713743476}
  m_Layer: 0
  m_Name: Directional Light
  m_TagString: Untagged
  m_Icon: {fileID: 0}
  m_NavMeshLayer: 0
  m_StaticEditorFlags: 0
  m_IsActive: 1
--- !u!108 &1713743476
Light:
  m_ObjectHideFlags: 0
  m_CorrespondingSourceObject: {fileID: 0}
  m_PrefabInstance: {fileID: 0}
  m_PrefabAsset: {fileID: 0}
  m_GameObject: {fileID: 1713743475}
  m_Enabled: 1
  serializedVersion: 10
  m_Type: 1
  m_Shape: 0
  m_Color: {r: 1, g: 0.95686275, b: 0.8392157, a: 1}
  m_Intensity: 1
  m_Range: 10
  m_SpotAngle: 30
  m_InnerSpotAngle: 21.80208
  m_CookieSize: 10
  m_Shadows:
    m_Type: 0
    m_Resolution: -1
    m_CustomResolution: -1
    m_Strength: 1
    m_Bias: 0.05
    m_NormalBias: 0.4
    m_NearPlane: 0.2
    m_CullingMatrixOverride:
      e00: 1
      e01: 0
      e02: 0
      e03: 0
      e10: 0
      e11: 1
      e12: 0
      e13: 0
      e20: 0
      e21: 0
      e22: 1
      e23: 0
      e30: 0
      e31: 0
      e32: 0
      e33: 1
    m_UseCullingMatrixOverride: 0
  m_Cookie: {fileID: 0}
  m_DrawHalo: 0
  m_Flare: {fileID: 0}
  m_RenderMode: 0
  m_CullingMask:
    serializedVersion: 2
    m_Bits: 4294967295
  m_RenderingLayerMask: 1
  m_Lightmapping: 4
  m_LightShadowCasterMode: 0
  m_AreaSize: {x: 1, y: 1}
  m_BounceIntensity: 1
  m_ColorTemperature: 6570
  m_UseColorTemperature: 0
  m_BoundingSphereOverride: {x: 0, y: 0, z: 0, w: 0}
  m_UseBoundingSphereOverride: 0
  m_ShadowRadius: 0
  m_ShadowAngle: 0
--- !u!4 &1713743477
Transform:
  m_ObjectHideFlags: 0
  m_CorrespondingSourceObject: {fileID: 0}
  m_PrefabInstance: {fileID: 0}
  m_PrefabAsset: {fileID: 0}
  m_GameObject: {fileID: 1713743475}
  m_LocalRotation: {x: 0.40821788, y: -0.23456968, z: 0.10938163, w: 0.8754261}
  m_LocalPosition: {x: 0, y: 3, z: 0}
  m_LocalScale: {x: 1, y: 1, z: 1}
  m_Children: []
  m_Father: {fileID: 0}
  m_RootOrder: 0
  m_LocalEulerAnglesHint: {x: 50, y: -30, z: 0}
--- !u!1001 &1714815530
PrefabInstance:
  m_ObjectHideFlags: 0
  serializedVersion: 2
  m_Modification:
    m_TransformParent: {fileID: 0}
    m_Modifications:
    - target: {fileID: 3768557011073027982, guid: b5c6b0e7886ff7d48ac4c1e807a6860f,
        type: 3}
      propertyPath: m_Name
      value: PF_Block2 (1)
      objectReference: {fileID: 0}
    - target: {fileID: 6825346583201313343, guid: b5c6b0e7886ff7d48ac4c1e807a6860f,
        type: 3}
      propertyPath: m_LocalPosition.x
      value: 0
      objectReference: {fileID: 0}
    - target: {fileID: 6825346583201313343, guid: b5c6b0e7886ff7d48ac4c1e807a6860f,
        type: 3}
      propertyPath: m_LocalPosition.y
      value: 0
      objectReference: {fileID: 0}
    - target: {fileID: 6825346583201313343, guid: b5c6b0e7886ff7d48ac4c1e807a6860f,
        type: 3}
      propertyPath: m_LocalPosition.z
      value: -1
      objectReference: {fileID: 0}
    - target: {fileID: 6825346583201313343, guid: b5c6b0e7886ff7d48ac4c1e807a6860f,
        type: 3}
      propertyPath: m_LocalRotation.x
      value: 0
      objectReference: {fileID: 0}
    - target: {fileID: 6825346583201313343, guid: b5c6b0e7886ff7d48ac4c1e807a6860f,
        type: 3}
      propertyPath: m_LocalRotation.y
      value: -0.7071068
      objectReference: {fileID: 0}
    - target: {fileID: 6825346583201313343, guid: b5c6b0e7886ff7d48ac4c1e807a6860f,
        type: 3}
      propertyPath: m_LocalRotation.z
      value: 0
      objectReference: {fileID: 0}
    - target: {fileID: 6825346583201313343, guid: b5c6b0e7886ff7d48ac4c1e807a6860f,
        type: 3}
      propertyPath: m_LocalRotation.w
      value: 0.7071068
      objectReference: {fileID: 0}
    - target: {fileID: 6825346583201313343, guid: b5c6b0e7886ff7d48ac4c1e807a6860f,
        type: 3}
      propertyPath: m_RootOrder
      value: 8
      objectReference: {fileID: 0}
    - target: {fileID: 6825346583201313343, guid: b5c6b0e7886ff7d48ac4c1e807a6860f,
        type: 3}
      propertyPath: m_LocalEulerAnglesHint.x
      value: 0
      objectReference: {fileID: 0}
    - target: {fileID: 6825346583201313343, guid: b5c6b0e7886ff7d48ac4c1e807a6860f,
        type: 3}
      propertyPath: m_LocalEulerAnglesHint.y
      value: -90
      objectReference: {fileID: 0}
    - target: {fileID: 6825346583201313343, guid: b5c6b0e7886ff7d48ac4c1e807a6860f,
        type: 3}
      propertyPath: m_LocalEulerAnglesHint.z
      value: 0
      objectReference: {fileID: 0}
    - target: {fileID: 7150010104915551622, guid: b5c6b0e7886ff7d48ac4c1e807a6860f,
        type: 3}
      propertyPath: direction
      value: 1
      objectReference: {fileID: 0}
    - target: {fileID: 8938336959143845967, guid: b5c6b0e7886ff7d48ac4c1e807a6860f,
        type: 3}
      propertyPath: m_Constraints
      value: 118
      objectReference: {fileID: 0}
    m_RemovedComponents: []
  m_SourcePrefab: {fileID: 100100000, guid: b5c6b0e7886ff7d48ac4c1e807a6860f, type: 3}
--- !u!1001 &1931828160
PrefabInstance:
  m_ObjectHideFlags: 0
  serializedVersion: 2
  m_Modification:
    m_TransformParent: {fileID: 0}
    m_Modifications:
    - target: {fileID: 173067644246568056, guid: d0cac7f77400fa344a2cec072705b719,
        type: 3}
      propertyPath: m_LocalPosition.x
      value: -0
      objectReference: {fileID: 0}
    - target: {fileID: 173067644246568056, guid: d0cac7f77400fa344a2cec072705b719,
        type: 3}
      propertyPath: m_LocalPosition.y
      value: 0
      objectReference: {fileID: 0}
    - target: {fileID: 173067644246568056, guid: d0cac7f77400fa344a2cec072705b719,
        type: 3}
      propertyPath: m_LocalPosition.z
      value: 0
      objectReference: {fileID: 0}
    - target: {fileID: 173067644246568056, guid: d0cac7f77400fa344a2cec072705b719,
        type: 3}
      propertyPath: m_LocalRotation.x
      value: -0
      objectReference: {fileID: 0}
    - target: {fileID: 173067644246568056, guid: d0cac7f77400fa344a2cec072705b719,
        type: 3}
      propertyPath: m_LocalRotation.y
      value: -0
      objectReference: {fileID: 0}
    - target: {fileID: 173067644246568056, guid: d0cac7f77400fa344a2cec072705b719,
        type: 3}
      propertyPath: m_LocalRotation.z
      value: -0
      objectReference: {fileID: 0}
    - target: {fileID: 173067644246568056, guid: d0cac7f77400fa344a2cec072705b719,
        type: 3}
      propertyPath: m_LocalRotation.w
      value: 1
      objectReference: {fileID: 0}
    - target: {fileID: 173067644246568056, guid: d0cac7f77400fa344a2cec072705b719,
        type: 3}
      propertyPath: m_RootOrder
      value: 5
      objectReference: {fileID: 0}
    - target: {fileID: 173067644246568056, guid: d0cac7f77400fa344a2cec072705b719,
        type: 3}
      propertyPath: m_LocalEulerAnglesHint.x
      value: 0
      objectReference: {fileID: 0}
    - target: {fileID: 173067644246568056, guid: d0cac7f77400fa344a2cec072705b719,
        type: 3}
      propertyPath: m_LocalEulerAnglesHint.y
      value: 0
      objectReference: {fileID: 0}
    - target: {fileID: 173067644246568056, guid: d0cac7f77400fa344a2cec072705b719,
        type: 3}
      propertyPath: m_LocalEulerAnglesHint.z
      value: 0
      objectReference: {fileID: 0}
    - target: {fileID: 173067644246568058, guid: d0cac7f77400fa344a2cec072705b719,
        type: 3}
      propertyPath: m_Name
      value: PostProceesVolume
      objectReference: {fileID: 0}
    m_RemovedComponents: []
  m_SourcePrefab: {fileID: 100100000, guid: d0cac7f77400fa344a2cec072705b719, type: 3}
